…
> 
> 
> # Modelagem
> tc_mod <- tc %>% 
+     select(-c(customer_id, latitude, longitude,
+               customer_status, churn_category, churn_reason, flg_churn_numeric)) %>% 
+     select(-matches('zip_code')) %>% 
+     select(-c(city))
> 
> # verifica colunas com valores faltantes
> tc_mod %>%
+     summarise(across(everything(), ~ sum(is.na(.x)))) %>% 
+     gather(variavel, qtd_nulos, everything()) %>% 
+     arrange(desc(qtd_nulos))
# A tibble: 49 × 2
   variavel                          qtd_nulos
   <chr>                                 <int>
 1 gender                                    0
 2 age                                       0
 3 flg_married                               0
 4 number_of_dependents                      0
 5 number_of_referrals                       0
 6 tenure_in_months                          0
 7 offer                                     0
 8 flg_phone_service                         0
 9 avg_monthly_long_distance_charges         0
10 flg_multiple_lines                        0
# … with 39 more rows
# ℹ Use `print(n = ...)` to see more rows
…
